09/14/19 10:18

numpy_intro.py has not been modified yet

-------------------------------------------------------------------------------

09/14/19 10:23

numpy_intro.py has not been modified yet

-------------------------------------------------------------------------------

09/17/19 17:24

Problem 1 (5 points):
NotImplementedError: Problem 1 Incomplete

Problem 2 (5 points):
NotImplementedError: Problem 2 Incomplete

Problem 3 (5 points):
NotImplementedError: Problem 3 Incomplete

Problem 4 (5 points):
NotImplementedError: Problem 4 Incomplete

Problem 5 (5 points):
NotImplementedError: Problem 5 Incomplete

Problem 6 (10 points):
NotImplementedError: Problem 6 Incomplete

Problem 7 (10 points):
NotImplementedError: Problem 7 Incomplete

Code Quality (5 points):
Score += 0

Total score: 0/50 = 0.0%

-------------------------------------------------------------------------------

