09/07/19 14:00

python_intro.py has not been modified yet

-------------------------------------------------------------------------------

09/10/19 17:23

python_intro.py has not been modified yet

-------------------------------------------------------------------------------

09/12/19 12:40

python_intro.py has not been modified yet

-------------------------------------------------------------------------------

